…
    ## Warning in left_join(mergeingtwo_df, results_df, by = "baker"): Detected an unexpected many-to-many relationship between `x` and `y`.
    ## ℹ Row 1 of `x` matches multiple rows in `y`.
    ## ℹ Row 166 of `y` matches multiple rows in `x`.
    ## ℹ If a many-to-many relationship is expected, set `relationship =
    ##   "many-to-many"` to silence this warning.

``` r
# Display the cleaned merged dataset
print(bakingmerged_df)
```

    ## # A tibble: 6,609 × 10
    ##    series baker_age baker_occupation     hometown baker episode.x signature_bake
    ##     <dbl>     <dbl> <chr>                <chr>    <chr>     <dbl> <chr>         
    ##  1      1        30 Midwife              Essex    Anne…         1 Light Jamaica…
    ##  2      1        30 Midwife              Essex    Anne…         1 Light Jamaica…
    ##  3      1        30 Midwife              Essex    Anne…         2 Rose Petal Sh…
    ##  4      1        30 Midwife              Essex    Anne…         2 Rose Petal Sh…
    ##  5      1        36 International healt… Whitby   David         1 Chocolate Ora…
    ##  6      1        36 International healt… Whitby   David         1 Chocolate Ora…
    ##  7      1        36 International healt… Whitby   David         1 Chocolate Ora…
    ##  8      1        36 International healt… Whitby   David         1 Chocolate Ora…
    ##  9      1        36 International healt… Whitby   David         2 Cheddar Chees…
    ## 10      1        36 International healt… Whitby   David         2 Cheddar Chees…
    ## # ℹ 6,599 more rows
    ## # ℹ 3 more variables: show_stopper <chr>, technical <dbl>, result <chr>
…
